{
  "$schema": "http://json.schemastore.org/launchsettings.json",
  "iisSettings": {
    "windowsAuthentication": false,
    "anonymousAuthentication": true,
    "iisExpress": {
      "applicationUrl": "http://localhost:64773",
      "sslPort": 44332
    }
  },
  "profiles": {
    "Inventario.Servicio": {
      "commandName": "Project",
      "launchUrl": "weatherforecast",
      "applicationUrl": "http://127.0.0.1:33906",
      "environmentVariables": {
        "ASPNETCORE_ENVIRONMENT": "Development"
      }
    }
  }
}